TP 8
…
setwd("D:/Dokumente/Studium/Master/Universit de Genve/Kurse/Forecasting with Business Applications/TP8")

# select the sector "Construction"
data = us_employment %>% 
  filter(Title == "Construction")

# create the STL model
STL_dec = data %>%
  model(stl = STL(Employed))

# extract the components and plot them
components(STL_dec)

## # A dable: 969 x 8 [1M]
## # Key:     Series_ID, .model [1]
## # :        Employed = trend + season_year + remainder
##    Series_ID     .model    Month Employed trend season_year remainder season_a
##    <chr>         <chr>     <mth>    <dbl> <dbl>       <dbl>     <dbl>      <dbl>
##  1 CEU2000000001 stl    1939 Jan      981 1206.      -174.     -51.4       1155.
##  2 CEU2000000001 stl    1939 Feb      970 1206.      -197.     -39.2       1167.
##  3 CEU2000000001 stl    1939 Mrz     1091 1206.      -140.      25.0       1231.
##  4 CEU2000000001 stl    1939 Apr     1181 1206.       -51.2     26.5       1232.
##  5 CEU2000000001 stl    1939 Mai     1286 1206.        28.1     52.0       1258.
##  6 CEU2000000001 stl    1939 Jun     1328 1206.        84.7     37.4       1243.
##  7 CEU2000000001 stl    1939 Jul     1341 1206.       133.       1.54      1208.
##  8 CEU2000000001 stl    1939 Aug     1368 1207.       149.      12.0       1219.
##  9 CEU2000000001 stl    1939 Sep     1342 1207.       140.      -5.68      1202.
## 10 CEU2000000001 stl    1939 Okt     1291 1208.        88.0     -4.99      1203.
## #  with 959 more rows, and abbreviated variable name season_adjust
…
# create the data needed for the plot
Month = c(data$Month, forecast$Month)
Employed = c(data$Employed, cont[(Date > max(data$Month) & Date < (max(data$Month)+37)),]$True)

plotdata = tibble(
  date = Month,
  value = Employed
)

# plot the data
fit %>% select(auto) %>% fabletools::forecast(h = "3 years")

## # A fable: 36 x 4 [1M]
## # Key:     .model [1]
##    .model    Month        Employed .mean
##    <chr>     <mth>          <dist> <dbl>
##  1 auto   2019 Okt  t(N(1194, 41)) 7681.
##  2 auto   2019 Nov  t(N(1181, 97)) 7573.
##  3 auto   2019 Dez t(N(1158, 177)) 7379.
##  4 auto   2020 Jan t(N(1123, 268)) 7086.
##  5 auto   2020 Feb t(N(1123, 370)) 7092.
##  6 auto   2020 Mrz t(N(1134, 481)) 7184.
##  7 auto   2020 Apr t(N(1157, 599)) 7371.
##  8 auto   2020 Mai t(N(1176, 722)) 7535.
##  9 auto   2020 Jun t(N(1193, 851)) 7678.
## 10 auto   2020 Jul t(N(1199, 984)) 7724.
## #  with 26 more rows
…
